﻿{
	"iisSettings": {
		"windowsAuthentication": false,
		"anonymousAuthentication": true,
		"iisExpress": {
			"applicationUrl": "http://localhost:50759",
			"sslPort": 44386
		}
	},
	"profiles": {
		"IIS Express": {
			"commandName": "IISExpress",
			"launchBrowser": false,
			"environmentVariables": {
				"ASPNETCORE_ENVIRONMENT": "Development"
			}
		},
		"ECommerceShipping": {
			"commandName": "Project",
			"launchBrowser": false,
			"applicationUrl": "https://localhost:5001;http://localhost:5000",
			"environmentVariables": {
				"ASPNETCORE_ENVIRONMENT": "Development"
			}
		}
	}
}